Engine/Binaries/Win32/UE4Game.exe	2018-05-03T17:58:32.289Z
Engine/Extras/Redist/en-us/UE4PrereqSetup_x86.exe	2018-03-14T17:36:09.232Z
Engine/Binaries/ThirdParty/Oculus/OVRPlugin/OVRPlugin/Win32/OVRPlugin.dll	2018-03-14T17:23:23.817Z
Engine/Binaries/ThirdParty/PhysX3/Win32/VS2015/PxFoundationPROFILE_x86.dll	2018-03-14T17:24:13.020Z
Engine/Binaries/ThirdParty/PhysX3/Win32/VS2015/PxPvdSDKPROFILE_x86.dll	2018-03-14T17:24:13.046Z
Engine/Binaries/ThirdParty/PhysX3/Win32/VS2015/PhysX3PROFILE_x86.dll	2018-03-14T17:24:12.992Z
Engine/Binaries/ThirdParty/PhysX3/Win32/VS2015/PhysX3CookingPROFILE_x86.dll	2018-03-14T17:24:12.802Z
Engine/Binaries/ThirdParty/PhysX3/Win32/VS2015/PhysX3CommonPROFILE_x86.dll	2018-03-14T17:24:12.777Z
Engine/Binaries/ThirdParty/PhysX3/Win32/VS2015/APEX_ClothingPROFILE_x86.dll	2018-03-14T17:24:04.632Z
Engine/Binaries/ThirdParty/PhysX3/Win32/VS2015/APEX_LegacyPROFILE_x86.dll	2018-03-14T17:24:07.055Z
Engine/Binaries/ThirdParty/PhysX3/Win32/VS2015/ApexFrameworkPROFILE_x86.dll	2018-03-14T17:24:09.575Z
Engine/Binaries/ThirdParty/PhysX3/Win32/VS2015/NvClothPROFILE_x86.dll	2018-03-14T17:24:09.599Z
Engine/Binaries/ThirdParty/Ogg/Win32/VS2015/libogg.dll	2018-03-14T17:23:27.117Z
Engine/Binaries/ThirdParty/Vorbis/Win32/VS2015/libvorbis.dll	2018-03-14T17:24:25.546Z
Engine/Binaries/ThirdParty/Vorbis/Win32/VS2015/libvorbisfile.dll	2018-03-14T17:24:25.555Z
Engine/Binaries/ThirdParty/OpenVR/OpenVRv1_0_10/Win32/openvr_api.dll	2018-03-14T17:23:30.462Z
ProyectoSoftware.exe	2018-05-25T20:48:56.898Z
